\contentsline {chapter}{\numberline {1}Class Index}{1}{chapter.1}
\contentsline {section}{\numberline {1.1}Class List}{1}{section.1.1}
\contentsline {chapter}{\numberline {2}File Index}{3}{chapter.2}
\contentsline {section}{\numberline {2.1}File List}{3}{section.2.1}
\contentsline {chapter}{\numberline {3}Class Documentation}{5}{chapter.3}
\contentsline {section}{\numberline {3.1}Echo\discretionary {\unhbox \voidb@x \hbox {\relax \fontsize {7}{8}\selectfont $\leftarrow \joinrel \rhook $}}{}{}:\discretionary {\unhbox \voidb@x \hbox {\relax \fontsize {7}{8}\selectfont $\leftarrow \joinrel \rhook $}}{}{}:Core\discretionary {\unhbox \voidb@x \hbox {\relax \fontsize {7}{8}\selectfont $\leftarrow \joinrel \rhook $}}{}{}:\discretionary {\unhbox \voidb@x \hbox {\relax \fontsize {7}{8}\selectfont $\leftarrow \joinrel \rhook $}}{}{}:Logger Class Reference}{5}{section.3.1}
\contentsline {subsection}{\numberline {3.1.1}Detailed Description}{5}{subsection.3.1.1}
\contentsline {subsection}{\numberline {3.1.2}Member Function Documentation}{5}{subsection.3.1.2}
\contentsline {subsubsection}{\numberline {3.1.2.1}Init}{5}{subsubsection.3.1.2.1}
\contentsline {subsubsection}{\numberline {3.1.2.2}operator$<$$<$}{6}{subsubsection.3.1.2.2}
\contentsline {section}{\numberline {3.2}Echo\discretionary {\unhbox \voidb@x \hbox {\relax \fontsize {7}{8}\selectfont $\leftarrow \joinrel \rhook $}}{}{}:\discretionary {\unhbox \voidb@x \hbox {\relax \fontsize {7}{8}\selectfont $\leftarrow \joinrel \rhook $}}{}{}:Core\discretionary {\unhbox \voidb@x \hbox {\relax \fontsize {7}{8}\selectfont $\leftarrow \joinrel \rhook $}}{}{}:\discretionary {\unhbox \voidb@x \hbox {\relax \fontsize {7}{8}\selectfont $\leftarrow \joinrel \rhook $}}{}{}:Member Class Reference}{6}{section.3.2}
\contentsline {subsection}{\numberline {3.2.1}Detailed Description}{6}{subsection.3.2.1}
\contentsline {subsection}{\numberline {3.2.2}Constructor \& Destructor Documentation}{6}{subsection.3.2.2}
\contentsline {subsubsection}{\numberline {3.2.2.1}Member}{6}{subsubsection.3.2.2.1}
\contentsline {section}{\numberline {3.3}Echo\discretionary {\unhbox \voidb@x \hbox {\relax \fontsize {7}{8}\selectfont $\leftarrow \joinrel \rhook $}}{}{}:\discretionary {\unhbox \voidb@x \hbox {\relax \fontsize {7}{8}\selectfont $\leftarrow \joinrel \rhook $}}{}{}:Core\discretionary {\unhbox \voidb@x \hbox {\relax \fontsize {7}{8}\selectfont $\leftarrow \joinrel \rhook $}}{}{}:\discretionary {\unhbox \voidb@x \hbox {\relax \fontsize {7}{8}\selectfont $\leftarrow \joinrel \rhook $}}{}{}:Type\discretionary {\unhbox \voidb@x \hbox {\relax \fontsize {7}{8}\selectfont $\leftarrow \joinrel \rhook $}}{}{}Data Class Reference}{7}{section.3.3}
\contentsline {subsection}{\numberline {3.3.1}Detailed Description}{8}{subsection.3.3.1}
\contentsline {subsection}{\numberline {3.3.2}Constructor \& Destructor Documentation}{8}{subsection.3.3.2}
\contentsline {subsubsection}{\numberline {3.3.2.1}Type\discretionary {\unhbox \voidb@x \hbox {\relax \fontsize {7}{8}\selectfont $\leftarrow \joinrel \rhook $}}{}{}Data}{8}{subsubsection.3.3.2.1}
\contentsline {subsection}{\numberline {3.3.3}Member Function Documentation}{8}{subsection.3.3.3}
\contentsline {subsubsection}{\numberline {3.3.3.1}Add\discretionary {\unhbox \voidb@x \hbox {\relax \fontsize {7}{8}\selectfont $\leftarrow \joinrel \rhook $}}{}{}Member}{8}{subsubsection.3.3.3.1}
\contentsline {subsubsection}{\numberline {3.3.3.2}Add\discretionary {\unhbox \voidb@x \hbox {\relax \fontsize {7}{8}\selectfont $\leftarrow \joinrel \rhook $}}{}{}Type}{8}{subsubsection.3.3.3.2}
\contentsline {subsubsection}{\numberline {3.3.3.3}Find\discretionary {\unhbox \voidb@x \hbox {\relax \fontsize {7}{8}\selectfont $\leftarrow \joinrel \rhook $}}{}{}Type}{8}{subsubsection.3.3.3.3}
\contentsline {subsubsection}{\numberline {3.3.3.4}operator"!=}{9}{subsubsection.3.3.3.4}
\contentsline {subsubsection}{\numberline {3.3.3.5}operator==}{9}{subsubsection.3.3.3.5}
\contentsline {subsubsection}{\numberline {3.3.3.6}Set\discretionary {\unhbox \voidb@x \hbox {\relax \fontsize {7}{8}\selectfont $\leftarrow \joinrel \rhook $}}{}{}Delete\discretionary {\unhbox \voidb@x \hbox {\relax \fontsize {7}{8}\selectfont $\leftarrow \joinrel \rhook $}}{}{}Func}{9}{subsubsection.3.3.3.6}
\contentsline {subsubsection}{\numberline {3.3.3.7}Set\discretionary {\unhbox \voidb@x \hbox {\relax \fontsize {7}{8}\selectfont $\leftarrow \joinrel \rhook $}}{}{}Deserialize\discretionary {\unhbox \voidb@x \hbox {\relax \fontsize {7}{8}\selectfont $\leftarrow \joinrel \rhook $}}{}{}Func}{9}{subsubsection.3.3.3.7}
\contentsline {subsubsection}{\numberline {3.3.3.8}Set\discretionary {\unhbox \voidb@x \hbox {\relax \fontsize {7}{8}\selectfont $\leftarrow \joinrel \rhook $}}{}{}New\discretionary {\unhbox \voidb@x \hbox {\relax \fontsize {7}{8}\selectfont $\leftarrow \joinrel \rhook $}}{}{}Func}{9}{subsubsection.3.3.3.8}
\contentsline {subsubsection}{\numberline {3.3.3.9}Set\discretionary {\unhbox \voidb@x \hbox {\relax \fontsize {7}{8}\selectfont $\leftarrow \joinrel \rhook $}}{}{}Serialize\discretionary {\unhbox \voidb@x \hbox {\relax \fontsize {7}{8}\selectfont $\leftarrow \joinrel \rhook $}}{}{}Func}{9}{subsubsection.3.3.3.9}
\contentsline {section}{\numberline {3.4}Echo\discretionary {\unhbox \voidb@x \hbox {\relax \fontsize {7}{8}\selectfont $\leftarrow \joinrel \rhook $}}{}{}:\discretionary {\unhbox \voidb@x \hbox {\relax \fontsize {7}{8}\selectfont $\leftarrow \joinrel \rhook $}}{}{}:Core\discretionary {\unhbox \voidb@x \hbox {\relax \fontsize {7}{8}\selectfont $\leftarrow \joinrel \rhook $}}{}{}:\discretionary {\unhbox \voidb@x \hbox {\relax \fontsize {7}{8}\selectfont $\leftarrow \joinrel \rhook $}}{}{}:Variable Class Reference}{10}{section.3.4}
\contentsline {subsection}{\numberline {3.4.1}Detailed Description}{10}{subsection.3.4.1}
\contentsline {subsection}{\numberline {3.4.2}Constructor \& Destructor Documentation}{10}{subsection.3.4.2}
\contentsline {subsubsection}{\numberline {3.4.2.1}Variable}{10}{subsubsection.3.4.2.1}
\contentsline {subsection}{\numberline {3.4.3}Member Function Documentation}{10}{subsection.3.4.3}
\contentsline {subsubsection}{\numberline {3.4.3.1}Deserialize}{10}{subsubsection.3.4.3.1}
\contentsline {subsubsection}{\numberline {3.4.3.2}Get\discretionary {\unhbox \voidb@x \hbox {\relax \fontsize {7}{8}\selectfont $\leftarrow \joinrel \rhook $}}{}{}Data}{10}{subsubsection.3.4.3.2}
\contentsline {subsubsection}{\numberline {3.4.3.3}Serialize}{10}{subsubsection.3.4.3.3}
\contentsline {chapter}{\numberline {4}File Documentation}{13}{chapter.4}
\contentsline {section}{\numberline {4.1}Source/\discretionary {\unhbox \voidb@x \hbox {\relax \fontsize {7}{8}\selectfont $\leftarrow \joinrel \rhook $}}{}{}Core/\discretionary {\unhbox \voidb@x \hbox {\relax \fontsize {7}{8}\selectfont $\leftarrow \joinrel \rhook $}}{}{}Debug.hpp File Reference}{13}{section.4.1}
\contentsline {subsection}{\numberline {4.1.1}Detailed Description}{13}{subsection.4.1.1}
\contentsline {section}{\numberline {4.2}Source/\discretionary {\unhbox \voidb@x \hbox {\relax \fontsize {7}{8}\selectfont $\leftarrow \joinrel \rhook $}}{}{}Core/\discretionary {\unhbox \voidb@x \hbox {\relax \fontsize {7}{8}\selectfont $\leftarrow \joinrel \rhook $}}{}{}Log.cpp File Reference}{13}{section.4.2}
\contentsline {subsection}{\numberline {4.2.1}Detailed Description}{14}{subsection.4.2.1}
\contentsline {section}{\numberline {4.3}Source/\discretionary {\unhbox \voidb@x \hbox {\relax \fontsize {7}{8}\selectfont $\leftarrow \joinrel \rhook $}}{}{}Core/\discretionary {\unhbox \voidb@x \hbox {\relax \fontsize {7}{8}\selectfont $\leftarrow \joinrel \rhook $}}{}{}Log.hpp File Reference}{14}{section.4.3}
\contentsline {subsection}{\numberline {4.3.1}Detailed Description}{14}{subsection.4.3.1}
\contentsline {section}{\numberline {4.4}Source/\discretionary {\unhbox \voidb@x \hbox {\relax \fontsize {7}{8}\selectfont $\leftarrow \joinrel \rhook $}}{}{}Core/\discretionary {\unhbox \voidb@x \hbox {\relax \fontsize {7}{8}\selectfont $\leftarrow \joinrel \rhook $}}{}{}Log.inl File Reference}{14}{section.4.4}
\contentsline {subsection}{\numberline {4.4.1}Detailed Description}{15}{subsection.4.4.1}
\contentsline {section}{\numberline {4.5}Source/\discretionary {\unhbox \voidb@x \hbox {\relax \fontsize {7}{8}\selectfont $\leftarrow \joinrel \rhook $}}{}{}Core/\discretionary {\unhbox \voidb@x \hbox {\relax \fontsize {7}{8}\selectfont $\leftarrow \joinrel \rhook $}}{}{}Member.cpp File Reference}{15}{section.4.5}
\contentsline {subsection}{\numberline {4.5.1}Detailed Description}{15}{subsection.4.5.1}
\contentsline {section}{\numberline {4.6}Source/\discretionary {\unhbox \voidb@x \hbox {\relax \fontsize {7}{8}\selectfont $\leftarrow \joinrel \rhook $}}{}{}Core/\discretionary {\unhbox \voidb@x \hbox {\relax \fontsize {7}{8}\selectfont $\leftarrow \joinrel \rhook $}}{}{}Member.hpp File Reference}{15}{section.4.6}
\contentsline {subsection}{\numberline {4.6.1}Detailed Description}{15}{subsection.4.6.1}
\contentsline {section}{\numberline {4.7}Source/\discretionary {\unhbox \voidb@x \hbox {\relax \fontsize {7}{8}\selectfont $\leftarrow \joinrel \rhook $}}{}{}Core/\discretionary {\unhbox \voidb@x \hbox {\relax \fontsize {7}{8}\selectfont $\leftarrow \joinrel \rhook $}}{}{}Type\discretionary {\unhbox \voidb@x \hbox {\relax \fontsize {7}{8}\selectfont $\leftarrow \joinrel \rhook $}}{}{}Data.cpp File Reference}{16}{section.4.7}
\contentsline {subsection}{\numberline {4.7.1}Detailed Description}{16}{subsection.4.7.1}
\contentsline {section}{\numberline {4.8}Source/\discretionary {\unhbox \voidb@x \hbox {\relax \fontsize {7}{8}\selectfont $\leftarrow \joinrel \rhook $}}{}{}Core/\discretionary {\unhbox \voidb@x \hbox {\relax \fontsize {7}{8}\selectfont $\leftarrow \joinrel \rhook $}}{}{}Type\discretionary {\unhbox \voidb@x \hbox {\relax \fontsize {7}{8}\selectfont $\leftarrow \joinrel \rhook $}}{}{}Data.hpp File Reference}{16}{section.4.8}
\contentsline {subsection}{\numberline {4.8.1}Detailed Description}{17}{subsection.4.8.1}
\contentsline {section}{\numberline {4.9}Source/\discretionary {\unhbox \voidb@x \hbox {\relax \fontsize {7}{8}\selectfont $\leftarrow \joinrel \rhook $}}{}{}Core/\discretionary {\unhbox \voidb@x \hbox {\relax \fontsize {7}{8}\selectfont $\leftarrow \joinrel \rhook $}}{}{}Type\discretionary {\unhbox \voidb@x \hbox {\relax \fontsize {7}{8}\selectfont $\leftarrow \joinrel \rhook $}}{}{}Data.inl File Reference}{17}{section.4.9}
\contentsline {subsection}{\numberline {4.9.1}Detailed Description}{18}{subsection.4.9.1}
\contentsline {subsection}{\numberline {4.9.2}Macro Definition Documentation}{18}{subsection.4.9.2}
\contentsline {subsubsection}{\numberline {4.9.2.1}R\discretionary {\unhbox \voidb@x \hbox {\relax \fontsize {7}{8}\selectfont $\leftarrow \joinrel \rhook $}}{}{}E\discretionary {\unhbox \voidb@x \hbox {\relax \fontsize {7}{8}\selectfont $\leftarrow \joinrel \rhook $}}{}{}G\discretionary {\unhbox \voidb@x \hbox {\relax \fontsize {7}{8}\selectfont $\leftarrow \joinrel \rhook $}}{}{}I\discretionary {\unhbox \voidb@x \hbox {\relax \fontsize {7}{8}\selectfont $\leftarrow \joinrel \rhook $}}{}{}S\discretionary {\unhbox \voidb@x \hbox {\relax \fontsize {7}{8}\selectfont $\leftarrow \joinrel \rhook $}}{}{}T\discretionary {\unhbox \voidb@x \hbox {\relax \fontsize {7}{8}\selectfont $\leftarrow \joinrel \rhook $}}{}{}E\discretionary {\unhbox \voidb@x \hbox {\relax \fontsize {7}{8}\selectfont $\leftarrow \joinrel \rhook $}}{}{}R\discretionary {\unhbox \voidb@x \hbox {\relax \fontsize {7}{8}\selectfont $\leftarrow \joinrel \rhook $}}{}{}\_\discretionary {\unhbox \voidb@x \hbox {\relax \fontsize {7}{8}\selectfont $\leftarrow \joinrel \rhook $}}{}{}\discretionary {\unhbox \voidb@x \hbox {\relax \fontsize {7}{8}\selectfont $\leftarrow \joinrel \rhook $}}{}{}M\discretionary {\unhbox \voidb@x \hbox {\relax \fontsize {7}{8}\selectfont $\leftarrow \joinrel \rhook $}}{}{}E\discretionary {\unhbox \voidb@x \hbox {\relax \fontsize {7}{8}\selectfont $\leftarrow \joinrel \rhook $}}{}{}M\discretionary {\unhbox \voidb@x \hbox {\relax \fontsize {7}{8}\selectfont $\leftarrow \joinrel \rhook $}}{}{}B\discretionary {\unhbox \voidb@x \hbox {\relax \fontsize {7}{8}\selectfont $\leftarrow \joinrel \rhook $}}{}{}E\discretionary {\unhbox \voidb@x \hbox {\relax \fontsize {7}{8}\selectfont $\leftarrow \joinrel \rhook $}}{}{}R}{18}{subsubsection.4.9.2.1}
\contentsline {subsubsection}{\numberline {4.9.2.2}R\discretionary {\unhbox \voidb@x \hbox {\relax \fontsize {7}{8}\selectfont $\leftarrow \joinrel \rhook $}}{}{}E\discretionary {\unhbox \voidb@x \hbox {\relax \fontsize {7}{8}\selectfont $\leftarrow \joinrel \rhook $}}{}{}G\discretionary {\unhbox \voidb@x \hbox {\relax \fontsize {7}{8}\selectfont $\leftarrow \joinrel \rhook $}}{}{}I\discretionary {\unhbox \voidb@x \hbox {\relax \fontsize {7}{8}\selectfont $\leftarrow \joinrel \rhook $}}{}{}S\discretionary {\unhbox \voidb@x \hbox {\relax \fontsize {7}{8}\selectfont $\leftarrow \joinrel \rhook $}}{}{}T\discretionary {\unhbox \voidb@x \hbox {\relax \fontsize {7}{8}\selectfont $\leftarrow \joinrel \rhook $}}{}{}E\discretionary {\unhbox \voidb@x \hbox {\relax \fontsize {7}{8}\selectfont $\leftarrow \joinrel \rhook $}}{}{}R\discretionary {\unhbox \voidb@x \hbox {\relax \fontsize {7}{8}\selectfont $\leftarrow \joinrel \rhook $}}{}{}\_\discretionary {\unhbox \voidb@x \hbox {\relax \fontsize {7}{8}\selectfont $\leftarrow \joinrel \rhook $}}{}{}\discretionary {\unhbox \voidb@x \hbox {\relax \fontsize {7}{8}\selectfont $\leftarrow \joinrel \rhook $}}{}{}T\discretionary {\unhbox \voidb@x \hbox {\relax \fontsize {7}{8}\selectfont $\leftarrow \joinrel \rhook $}}{}{}Y\discretionary {\unhbox \voidb@x \hbox {\relax \fontsize {7}{8}\selectfont $\leftarrow \joinrel \rhook $}}{}{}P\discretionary {\unhbox \voidb@x \hbox {\relax \fontsize {7}{8}\selectfont $\leftarrow \joinrel \rhook $}}{}{}E}{18}{subsubsection.4.9.2.2}
\contentsline {section}{\numberline {4.10}Source/\discretionary {\unhbox \voidb@x \hbox {\relax \fontsize {7}{8}\selectfont $\leftarrow \joinrel \rhook $}}{}{}Core/\discretionary {\unhbox \voidb@x \hbox {\relax \fontsize {7}{8}\selectfont $\leftarrow \joinrel \rhook $}}{}{}Variable.cpp File Reference}{18}{section.4.10}
\contentsline {subsection}{\numberline {4.10.1}Detailed Description}{19}{subsection.4.10.1}
\contentsline {section}{\numberline {4.11}Source/\discretionary {\unhbox \voidb@x \hbox {\relax \fontsize {7}{8}\selectfont $\leftarrow \joinrel \rhook $}}{}{}Core/\discretionary {\unhbox \voidb@x \hbox {\relax \fontsize {7}{8}\selectfont $\leftarrow \joinrel \rhook $}}{}{}Variable.hpp File Reference}{19}{section.4.11}
\contentsline {subsection}{\numberline {4.11.1}Detailed Description}{19}{subsection.4.11.1}
\contentsline {chapter}{Index}{21}{section*.18}
