\relax 
\providecommand\hyper@newdestlabel[2]{}
\providecommand\HyperFirstAtBeginDocument{\AtBeginDocument}
\HyperFirstAtBeginDocument{\ifx\hyper@anchor\@undefined
\global\let\oldcontentsline\contentsline
\gdef\contentsline#1#2#3#4{\oldcontentsline{#1}{#2}{#3}}
\global\let\oldnewlabel\newlabel
\gdef\newlabel#1#2{\newlabelxx{#1}#2}
\gdef\newlabelxx#1#2#3#4#5#6{\oldnewlabel{#1}{{#2}{#3}}}
\AtEndDocument{\ifx\hyper@anchor\@undefined
\let\contentsline\oldcontentsline
\let\newlabel\oldnewlabel
\fi}
\fi}
\global\let\hyper@last\relax 
\gdef\HyperFirstAtBeginDocument#1{#1}
\providecommand\HyField@AuxAddToFields[1]{}
\providecommand\HyField@AuxAddToCoFields[2]{}
\providecommand \oddpage@label [2]{}
\@writefile{toc}{\contentsline {chapter}{\numberline {1}Class Index}{1}{chapter.1}}
\@writefile{lof}{\addvspace {10\p@ }}
\@writefile{lot}{\addvspace {10\p@ }}
\@writefile{toc}{\contentsline {section}{\numberline {1.1}Class List}{1}{section.1.1}}
\@writefile{toc}{\contentsline {chapter}{\numberline {2}File Index}{3}{chapter.2}}
\@writefile{lof}{\addvspace {10\p@ }}
\@writefile{lot}{\addvspace {10\p@ }}
\@writefile{toc}{\contentsline {section}{\numberline {2.1}File List}{3}{section.2.1}}
\@writefile{toc}{\contentsline {chapter}{\numberline {3}Class Documentation}{5}{chapter.3}}
\@writefile{lof}{\addvspace {10\p@ }}
\@writefile{lot}{\addvspace {10\p@ }}
\@writefile{toc}{\contentsline {section}{\numberline {3.1}Echo\discretionary {\unhbox \voidb@x \hbox {\relax \fontsize  {7}{8}\selectfont  $\leftarrow \joinrel  \rhook $}}{}{}:\discretionary {\unhbox \voidb@x \hbox {\relax \fontsize  {7}{8}\selectfont  $\leftarrow \joinrel  \rhook $}}{}{}:Core\discretionary {\unhbox \voidb@x \hbox {\relax \fontsize  {7}{8}\selectfont  $\leftarrow \joinrel  \rhook $}}{}{}:\discretionary {\unhbox \voidb@x \hbox {\relax \fontsize  {7}{8}\selectfont  $\leftarrow \joinrel  \rhook $}}{}{}:Logger Class Reference}{5}{section.3.1}}
\newlabel{class_echo_1_1_core_1_1_logger}{{3.1}{5}{Echo\+:\+:Core\+:\+:Logger Class Reference}{section.3.1}{}}
\newlabel{class_echo_1_1_core_1_1_logger_a3e7df168912f236b0b88e0185dfd14cc}{{3.1}{5}{Public Member Functions}{section*.2}{}}
\newlabel{class_echo_1_1_core_1_1_logger_a56e0ac6ffd3df98b70cc4037f1c16537}{{3.1}{5}{Public Member Functions}{section*.2}{}}
\newlabel{class_echo_1_1_core_1_1_logger_af04f2823297c2fcf4f0463640ea84f2c}{{3.1}{5}{Public Member Functions}{section*.2}{}}
\newlabel{class_echo_1_1_core_1_1_logger_aa188f81001c075a03cd06ff6955929c1}{{3.1}{5}{Public Member Functions}{section*.2}{}}
\@writefile{toc}{\contentsline {subsection}{\numberline {3.1.1}Detailed Description}{5}{subsection.3.1.1}}
\@writefile{toc}{\contentsline {subsection}{\numberline {3.1.2}Member Function Documentation}{5}{subsection.3.1.2}}
\@writefile{toc}{\contentsline {subsubsection}{\numberline {3.1.2.1}Init}{5}{subsubsection.3.1.2.1}}
\newlabel{class_echo_1_1_core_1_1_logger_a6d5f5fab3298e106a1228d8fc5f7557a}{{3.1.2.1}{5}{Init}{subsubsection.3.1.2.1}{}}
\gdef \PWST@i{2}
\gdef \PWST@ii{1}
\@writefile{toc}{\contentsline {subsubsection}{\numberline {3.1.2.2}operator$<$$<$}{6}{subsubsection.3.1.2.2}}
\newlabel{class_echo_1_1_core_1_1_logger_a76882433f4bae282aefb018f3feb59d8}{{3.1.2.2}{6}{operator$<$$<$}{subsubsection.3.1.2.2}{}}
\@writefile{toc}{\contentsline {section}{\numberline {3.2}Echo\discretionary {\unhbox \voidb@x \hbox {\relax \fontsize  {7}{8}\selectfont  $\leftarrow \joinrel  \rhook $}}{}{}:\discretionary {\unhbox \voidb@x \hbox {\relax \fontsize  {7}{8}\selectfont  $\leftarrow \joinrel  \rhook $}}{}{}:Core\discretionary {\unhbox \voidb@x \hbox {\relax \fontsize  {7}{8}\selectfont  $\leftarrow \joinrel  \rhook $}}{}{}:\discretionary {\unhbox \voidb@x \hbox {\relax \fontsize  {7}{8}\selectfont  $\leftarrow \joinrel  \rhook $}}{}{}:Member Class Reference}{6}{section.3.2}}
\newlabel{class_echo_1_1_core_1_1_member}{{3.2}{6}{Echo\+:\+:Core\+:\+:Member Class Reference}{section.3.2}{}}
\newlabel{class_echo_1_1_core_1_1_member_a3c9002bb6ade48341cad9a50de58af74}{{3.2}{6}{Public Member Functions}{section*.3}{}}
\newlabel{class_echo_1_1_core_1_1_member_aa96952116fcc9bbf76442ec16b47eaf2}{{3.2}{6}{Public Member Functions}{section*.3}{}}
\newlabel{class_echo_1_1_core_1_1_member_a63ae7f17369fce8657692b35ef6797f3}{{3.2}{6}{Public Member Functions}{section*.3}{}}
\newlabel{class_echo_1_1_core_1_1_member_a9e2b166c1e7cf8d54dcda6bc16138481}{{3.2}{6}{Public Member Functions}{section*.3}{}}
\@writefile{toc}{\contentsline {subsection}{\numberline {3.2.1}Detailed Description}{6}{subsection.3.2.1}}
\@writefile{toc}{\contentsline {subsection}{\numberline {3.2.2}Constructor \& Destructor Documentation}{6}{subsection.3.2.2}}
\@writefile{toc}{\contentsline {subsubsection}{\numberline {3.2.2.1}Member}{6}{subsubsection.3.2.2.1}}
\newlabel{class_echo_1_1_core_1_1_member_a1a03daf4ed25da3ccdc114694eb30bf9}{{3.2.2.1}{6}{Member}{subsubsection.3.2.2.1}{}}
\gdef \PWST@iii{2}
\@writefile{toc}{\contentsline {section}{\numberline {3.3}Echo\discretionary {\unhbox \voidb@x \hbox {\relax \fontsize  {7}{8}\selectfont  $\leftarrow \joinrel  \rhook $}}{}{}:\discretionary {\unhbox \voidb@x \hbox {\relax \fontsize  {7}{8}\selectfont  $\leftarrow \joinrel  \rhook $}}{}{}:Core\discretionary {\unhbox \voidb@x \hbox {\relax \fontsize  {7}{8}\selectfont  $\leftarrow \joinrel  \rhook $}}{}{}:\discretionary {\unhbox \voidb@x \hbox {\relax \fontsize  {7}{8}\selectfont  $\leftarrow \joinrel  \rhook $}}{}{}:Type\discretionary {\unhbox \voidb@x \hbox {\relax \fontsize  {7}{8}\selectfont  $\leftarrow \joinrel  \rhook $}}{}{}Data Class Reference}{7}{section.3.3}}
\newlabel{class_echo_1_1_core_1_1_type_data}{{3.3}{7}{Echo\+:\+:Core\+:\+:Type\+Data Class Reference}{section.3.3}{}}
\newlabel{class_echo_1_1_core_1_1_type_data_a8799f81843933e62a987dfe373cdbf3e}{{3.3}{7}{Public Types}{section*.4}{}}
\newlabel{class_echo_1_1_core_1_1_type_data_a2f4dbb1394773e30e16d4a5bad0f3bab}{{3.3}{7}{Public Types}{section*.4}{}}
\newlabel{class_echo_1_1_core_1_1_type_data_a8fd8a52c34e4df08f607c2b0ad237df7}{{3.3}{7}{Public Types}{section*.4}{}}
\newlabel{class_echo_1_1_core_1_1_type_data_a968b66e79a865483a1063c84e6a64e0a}{{3.3}{7}{Public Types}{section*.4}{}}
\newlabel{class_echo_1_1_core_1_1_type_data_a5fe7df145f5c88ac48a59a419c06627a}{{3.3}{7}{Public Member Functions}{section*.5}{}}
\newlabel{class_echo_1_1_core_1_1_type_data_ab19378a35b35f469c376ff6bdbfe9773}{{3.3}{7}{Public Member Functions}{section*.5}{}}
\newlabel{class_echo_1_1_core_1_1_type_data_ae1ad96e14ae93fd4f4420a608ce5b03f}{{3.3}{7}{Public Member Functions}{section*.5}{}}
\newlabel{class_echo_1_1_core_1_1_type_data_aed6223e61400aecc62dd664b0d13297e}{{3.3}{7}{Public Member Functions}{section*.5}{}}
\newlabel{class_echo_1_1_core_1_1_type_data_a43d4ca25f60ed55a96e61e24207117dc}{{3.3}{7}{Public Member Functions}{section*.5}{}}
\gdef \PWST@iv{1}
\gdef \PWST@v{1}
\gdef \PWST@vi{1}
\newlabel{class_echo_1_1_core_1_1_type_data_a831d0ab710bf74675367c3278cb18d05}{{3.3}{8}{Public Member Functions}{section*.5}{}}
\newlabel{class_echo_1_1_core_1_1_type_data_ae199cf7fac3356099bfa92514cec8ee1}{{3.3}{8}{Public Member Functions}{section*.5}{}}
\@writefile{toc}{\contentsline {subsection}{\numberline {3.3.1}Detailed Description}{8}{subsection.3.3.1}}
\@writefile{toc}{\contentsline {subsection}{\numberline {3.3.2}Constructor \& Destructor Documentation}{8}{subsection.3.3.2}}
\@writefile{toc}{\contentsline {subsubsection}{\numberline {3.3.2.1}Type\discretionary {\unhbox \voidb@x \hbox {\relax \fontsize  {7}{8}\selectfont  $\leftarrow \joinrel  \rhook $}}{}{}Data}{8}{subsubsection.3.3.2.1}}
\newlabel{class_echo_1_1_core_1_1_type_data_aacd8bf7c3c2d0600e88afebae70c820a}{{3.3.2.1}{8}{Type\+Data}{subsubsection.3.3.2.1}{}}
\@writefile{toc}{\contentsline {subsection}{\numberline {3.3.3}Member Function Documentation}{8}{subsection.3.3.3}}
\@writefile{toc}{\contentsline {subsubsection}{\numberline {3.3.3.1}Add\discretionary {\unhbox \voidb@x \hbox {\relax \fontsize  {7}{8}\selectfont  $\leftarrow \joinrel  \rhook $}}{}{}Member}{8}{subsubsection.3.3.3.1}}
\newlabel{class_echo_1_1_core_1_1_type_data_aa666947ccbee42bbef6aab86cdb351ef}{{3.3.3.1}{8}{Add\+Member}{subsubsection.3.3.3.1}{}}
\@writefile{toc}{\contentsline {subsubsection}{\numberline {3.3.3.2}Add\discretionary {\unhbox \voidb@x \hbox {\relax \fontsize  {7}{8}\selectfont  $\leftarrow \joinrel  \rhook $}}{}{}Type}{8}{subsubsection.3.3.3.2}}
\newlabel{class_echo_1_1_core_1_1_type_data_ac9e22aaebc0af848423b407990e357e1}{{3.3.3.2}{8}{Add\+Type}{subsubsection.3.3.3.2}{}}
\@writefile{toc}{\contentsline {subsubsection}{\numberline {3.3.3.3}Find\discretionary {\unhbox \voidb@x \hbox {\relax \fontsize  {7}{8}\selectfont  $\leftarrow \joinrel  \rhook $}}{}{}Type}{8}{subsubsection.3.3.3.3}}
\newlabel{class_echo_1_1_core_1_1_type_data_a050db3bb24d7f10f76329993877327cf}{{3.3.3.3}{8}{Find\+Type}{subsubsection.3.3.3.3}{}}
\gdef \PWST@vii{1}
\gdef \PWST@viii{1}
\gdef \PWST@ix{1}
\gdef \PWST@x{1}
\gdef \PWST@xi{1}
\gdef \PWST@xii{1}
\gdef \PWST@xiii{1}
\@writefile{toc}{\contentsline {subsubsection}{\numberline {3.3.3.4}operator"!=}{9}{subsubsection.3.3.3.4}}
\newlabel{class_echo_1_1_core_1_1_type_data_a2dfdea2b33dd60bf3710ca0c534822c5}{{3.3.3.4}{9}{operator"!=}{subsubsection.3.3.3.4}{}}
\@writefile{toc}{\contentsline {subsubsection}{\numberline {3.3.3.5}operator==}{9}{subsubsection.3.3.3.5}}
\newlabel{class_echo_1_1_core_1_1_type_data_a7ec24fd3029e6e7e20138d38710b75d6}{{3.3.3.5}{9}{operator==}{subsubsection.3.3.3.5}{}}
\@writefile{toc}{\contentsline {subsubsection}{\numberline {3.3.3.6}Set\discretionary {\unhbox \voidb@x \hbox {\relax \fontsize  {7}{8}\selectfont  $\leftarrow \joinrel  \rhook $}}{}{}Delete\discretionary {\unhbox \voidb@x \hbox {\relax \fontsize  {7}{8}\selectfont  $\leftarrow \joinrel  \rhook $}}{}{}Func}{9}{subsubsection.3.3.3.6}}
\newlabel{class_echo_1_1_core_1_1_type_data_aac1b58fb98721ce00072acf7b67656de}{{3.3.3.6}{9}{Set\+Delete\+Func}{subsubsection.3.3.3.6}{}}
\@writefile{toc}{\contentsline {subsubsection}{\numberline {3.3.3.7}Set\discretionary {\unhbox \voidb@x \hbox {\relax \fontsize  {7}{8}\selectfont  $\leftarrow \joinrel  \rhook $}}{}{}Deserialize\discretionary {\unhbox \voidb@x \hbox {\relax \fontsize  {7}{8}\selectfont  $\leftarrow \joinrel  \rhook $}}{}{}Func}{9}{subsubsection.3.3.3.7}}
\newlabel{class_echo_1_1_core_1_1_type_data_afa8a54176cdcd6cc146a6ce947fe42ed}{{3.3.3.7}{9}{Set\+Deserialize\+Func}{subsubsection.3.3.3.7}{}}
\@writefile{toc}{\contentsline {subsubsection}{\numberline {3.3.3.8}Set\discretionary {\unhbox \voidb@x \hbox {\relax \fontsize  {7}{8}\selectfont  $\leftarrow \joinrel  \rhook $}}{}{}New\discretionary {\unhbox \voidb@x \hbox {\relax \fontsize  {7}{8}\selectfont  $\leftarrow \joinrel  \rhook $}}{}{}Func}{9}{subsubsection.3.3.3.8}}
\newlabel{class_echo_1_1_core_1_1_type_data_a37c5fbbcdc8bbab903cd691ac4d5bbd3}{{3.3.3.8}{9}{Set\+New\+Func}{subsubsection.3.3.3.8}{}}
\@writefile{toc}{\contentsline {subsubsection}{\numberline {3.3.3.9}Set\discretionary {\unhbox \voidb@x \hbox {\relax \fontsize  {7}{8}\selectfont  $\leftarrow \joinrel  \rhook $}}{}{}Serialize\discretionary {\unhbox \voidb@x \hbox {\relax \fontsize  {7}{8}\selectfont  $\leftarrow \joinrel  \rhook $}}{}{}Func}{9}{subsubsection.3.3.3.9}}
\newlabel{class_echo_1_1_core_1_1_type_data_a64834befabaf987ff0fca358db137d6a}{{3.3.3.9}{9}{Set\+Serialize\+Func}{subsubsection.3.3.3.9}{}}
\gdef \PWST@xiv{1}
\gdef \PWST@xv{1}
\@writefile{toc}{\contentsline {section}{\numberline {3.4}Echo\discretionary {\unhbox \voidb@x \hbox {\relax \fontsize  {7}{8}\selectfont  $\leftarrow \joinrel  \rhook $}}{}{}:\discretionary {\unhbox \voidb@x \hbox {\relax \fontsize  {7}{8}\selectfont  $\leftarrow \joinrel  \rhook $}}{}{}:Core\discretionary {\unhbox \voidb@x \hbox {\relax \fontsize  {7}{8}\selectfont  $\leftarrow \joinrel  \rhook $}}{}{}:\discretionary {\unhbox \voidb@x \hbox {\relax \fontsize  {7}{8}\selectfont  $\leftarrow \joinrel  \rhook $}}{}{}:Variable Class Reference}{10}{section.3.4}}
\newlabel{class_echo_1_1_core_1_1_variable}{{3.4}{10}{Echo\+:\+:Core\+:\+:Variable Class Reference}{section.3.4}{}}
\newlabel{class_echo_1_1_core_1_1_variable_aba3469b81dacf9d254b27e1a9d09df56}{{3.4}{10}{Public Member Functions}{section*.7}{}}
\newlabel{class_echo_1_1_core_1_1_variable_a79b70fd9d681876ef6563e1172d17904}{{3.4}{10}{Public Member Functions}{section*.7}{}}
\@writefile{toc}{\contentsline {subsection}{\numberline {3.4.1}Detailed Description}{10}{subsection.3.4.1}}
\@writefile{toc}{\contentsline {subsection}{\numberline {3.4.2}Constructor \& Destructor Documentation}{10}{subsection.3.4.2}}
\@writefile{toc}{\contentsline {subsubsection}{\numberline {3.4.2.1}Variable}{10}{subsubsection.3.4.2.1}}
\newlabel{class_echo_1_1_core_1_1_variable_a97914c3c14ffa3f7d75df5ab14c1763b}{{3.4.2.1}{10}{Variable}{subsubsection.3.4.2.1}{}}
\@writefile{toc}{\contentsline {subsection}{\numberline {3.4.3}Member Function Documentation}{10}{subsection.3.4.3}}
\@writefile{toc}{\contentsline {subsubsection}{\numberline {3.4.3.1}Deserialize}{10}{subsubsection.3.4.3.1}}
\newlabel{class_echo_1_1_core_1_1_variable_aeca9008ef5044cbdeb2087cbdca26f29}{{3.4.3.1}{10}{Deserialize}{subsubsection.3.4.3.1}{}}
\@writefile{toc}{\contentsline {subsubsection}{\numberline {3.4.3.2}Get\discretionary {\unhbox \voidb@x \hbox {\relax \fontsize  {7}{8}\selectfont  $\leftarrow \joinrel  \rhook $}}{}{}Data}{10}{subsubsection.3.4.3.2}}
\newlabel{class_echo_1_1_core_1_1_variable_adba16c8d836459e0c0055864e6d1ce55}{{3.4.3.2}{10}{Get\+Data}{subsubsection.3.4.3.2}{}}
\@writefile{toc}{\contentsline {subsubsection}{\numberline {3.4.3.3}Serialize}{10}{subsubsection.3.4.3.3}}
\newlabel{class_echo_1_1_core_1_1_variable_a583bb4cab00c2854bc6fab1006133b3e}{{3.4.3.3}{10}{Serialize}{subsubsection.3.4.3.3}{}}
\gdef \PWST@xvi{1}
\@writefile{toc}{\contentsline {chapter}{\numberline {4}File Documentation}{13}{chapter.4}}
\@writefile{lof}{\addvspace {10\p@ }}
\@writefile{lot}{\addvspace {10\p@ }}
\@writefile{toc}{\contentsline {section}{\numberline {4.1}Source/\discretionary {\unhbox \voidb@x \hbox {\relax \fontsize  {7}{8}\selectfont  $\leftarrow \joinrel  \rhook $}}{}{}Core/\discretionary {\unhbox \voidb@x \hbox {\relax \fontsize  {7}{8}\selectfont  $\leftarrow \joinrel  \rhook $}}{}{}Debug.hpp File Reference}{13}{section.4.1}}
\newlabel{_debug_8hpp}{{4.1}{13}{Source/\+Core/\+Debug.hpp File Reference}{section.4.1}{}}
\newlabel{_debug_8hpp_ac22830a985e1daed0c9eadba8c6f606e}{{4.1}{13}{Macros}{section*.8}{}}
\@writefile{toc}{\contentsline {subsection}{\numberline {4.1.1}Detailed Description}{13}{subsection.4.1.1}}
\@writefile{toc}{\contentsline {section}{\numberline {4.2}Source/\discretionary {\unhbox \voidb@x \hbox {\relax \fontsize  {7}{8}\selectfont  $\leftarrow \joinrel  \rhook $}}{}{}Core/\discretionary {\unhbox \voidb@x \hbox {\relax \fontsize  {7}{8}\selectfont  $\leftarrow \joinrel  \rhook $}}{}{}Log.cpp File Reference}{13}{section.4.2}}
\newlabel{_log_8cpp}{{4.2}{13}{Source/\+Core/\+Log.cpp File Reference}{section.4.2}{}}
\newlabel{namespace_echo_1_1_core_aace8ca0b14944d9cb8416c885eaf4391}{{4.2}{13}{Variables}{section*.9}{}}
\@writefile{toc}{\contentsline {subsection}{\numberline {4.2.1}Detailed Description}{14}{subsection.4.2.1}}
\@writefile{toc}{\contentsline {section}{\numberline {4.3}Source/\discretionary {\unhbox \voidb@x \hbox {\relax \fontsize  {7}{8}\selectfont  $\leftarrow \joinrel  \rhook $}}{}{}Core/\discretionary {\unhbox \voidb@x \hbox {\relax \fontsize  {7}{8}\selectfont  $\leftarrow \joinrel  \rhook $}}{}{}Log.hpp File Reference}{14}{section.4.3}}
\newlabel{_log_8hpp}{{4.3}{14}{Source/\+Core/\+Log.hpp File Reference}{section.4.3}{}}
\newlabel{namespace_echo_1_1_core_aa78a3d8f4c5a2549f186e62ddf05ec4d}{{4.3}{14}{Enumerations}{section*.11}{}}
\@writefile{toc}{\contentsline {subsection}{\numberline {4.3.1}Detailed Description}{14}{subsection.4.3.1}}
\@writefile{toc}{\contentsline {section}{\numberline {4.4}Source/\discretionary {\unhbox \voidb@x \hbox {\relax \fontsize  {7}{8}\selectfont  $\leftarrow \joinrel  \rhook $}}{}{}Core/\discretionary {\unhbox \voidb@x \hbox {\relax \fontsize  {7}{8}\selectfont  $\leftarrow \joinrel  \rhook $}}{}{}Log.inl File Reference}{14}{section.4.4}}
\newlabel{_log_8inl}{{4.4}{14}{Source/\+Core/\+Log.inl File Reference}{section.4.4}{}}
\@writefile{toc}{\contentsline {subsection}{\numberline {4.4.1}Detailed Description}{15}{subsection.4.4.1}}
\@writefile{toc}{\contentsline {section}{\numberline {4.5}Source/\discretionary {\unhbox \voidb@x \hbox {\relax \fontsize  {7}{8}\selectfont  $\leftarrow \joinrel  \rhook $}}{}{}Core/\discretionary {\unhbox \voidb@x \hbox {\relax \fontsize  {7}{8}\selectfont  $\leftarrow \joinrel  \rhook $}}{}{}Member.cpp File Reference}{15}{section.4.5}}
\newlabel{_member_8cpp}{{4.5}{15}{Source/\+Core/\+Member.cpp File Reference}{section.4.5}{}}
\@writefile{toc}{\contentsline {subsection}{\numberline {4.5.1}Detailed Description}{15}{subsection.4.5.1}}
\@writefile{toc}{\contentsline {section}{\numberline {4.6}Source/\discretionary {\unhbox \voidb@x \hbox {\relax \fontsize  {7}{8}\selectfont  $\leftarrow \joinrel  \rhook $}}{}{}Core/\discretionary {\unhbox \voidb@x \hbox {\relax \fontsize  {7}{8}\selectfont  $\leftarrow \joinrel  \rhook $}}{}{}Member.hpp File Reference}{15}{section.4.6}}
\newlabel{_member_8hpp}{{4.6}{15}{Source/\+Core/\+Member.hpp File Reference}{section.4.6}{}}
\@writefile{toc}{\contentsline {subsection}{\numberline {4.6.1}Detailed Description}{15}{subsection.4.6.1}}
\@writefile{toc}{\contentsline {section}{\numberline {4.7}Source/\discretionary {\unhbox \voidb@x \hbox {\relax \fontsize  {7}{8}\selectfont  $\leftarrow \joinrel  \rhook $}}{}{}Core/\discretionary {\unhbox \voidb@x \hbox {\relax \fontsize  {7}{8}\selectfont  $\leftarrow \joinrel  \rhook $}}{}{}Type\discretionary {\unhbox \voidb@x \hbox {\relax \fontsize  {7}{8}\selectfont  $\leftarrow \joinrel  \rhook $}}{}{}Data.cpp File Reference}{16}{section.4.7}}
\newlabel{_type_data_8cpp}{{4.7}{16}{Source/\+Core/\+Type\+Data.cpp File Reference}{section.4.7}{}}
\@writefile{toc}{\contentsline {subsection}{\numberline {4.7.1}Detailed Description}{16}{subsection.4.7.1}}
\@writefile{toc}{\contentsline {section}{\numberline {4.8}Source/\discretionary {\unhbox \voidb@x \hbox {\relax \fontsize  {7}{8}\selectfont  $\leftarrow \joinrel  \rhook $}}{}{}Core/\discretionary {\unhbox \voidb@x \hbox {\relax \fontsize  {7}{8}\selectfont  $\leftarrow \joinrel  \rhook $}}{}{}Type\discretionary {\unhbox \voidb@x \hbox {\relax \fontsize  {7}{8}\selectfont  $\leftarrow \joinrel  \rhook $}}{}{}Data.hpp File Reference}{16}{section.4.8}}
\newlabel{_type_data_8hpp}{{4.8}{16}{Source/\+Core/\+Type\+Data.hpp File Reference}{section.4.8}{}}
\@writefile{toc}{\contentsline {subsection}{\numberline {4.8.1}Detailed Description}{17}{subsection.4.8.1}}
\@writefile{toc}{\contentsline {section}{\numberline {4.9}Source/\discretionary {\unhbox \voidb@x \hbox {\relax \fontsize  {7}{8}\selectfont  $\leftarrow \joinrel  \rhook $}}{}{}Core/\discretionary {\unhbox \voidb@x \hbox {\relax \fontsize  {7}{8}\selectfont  $\leftarrow \joinrel  \rhook $}}{}{}Type\discretionary {\unhbox \voidb@x \hbox {\relax \fontsize  {7}{8}\selectfont  $\leftarrow \joinrel  \rhook $}}{}{}Data.inl File Reference}{17}{section.4.9}}
\newlabel{_type_data_8inl}{{4.9}{17}{Source/\+Core/\+Type\+Data.inl File Reference}{section.4.9}{}}
\newlabel{namespace_echo_1_1_core_a3bd491f7eb436e9747a6aa0b7ddc6097}{{4.9}{17}{Functions}{section*.16}{}}
\newlabel{namespace_echo_1_1_core_a7b9cfa3a4be3655b8ee85afd6bd972ad}{{4.9}{17}{Functions}{section*.16}{}}
\newlabel{namespace_echo_1_1_core_a503954850607782351a614777168effa}{{4.9}{17}{Functions}{section*.16}{}}
\newlabel{namespace_echo_1_1_core_a1acc6feca191af536db7a07b4a2a2320}{{4.9}{17}{Functions}{section*.16}{}}
\gdef \PWST@xvii{1}
\@writefile{toc}{\contentsline {subsection}{\numberline {4.9.1}Detailed Description}{18}{subsection.4.9.1}}
\@writefile{toc}{\contentsline {subsection}{\numberline {4.9.2}Macro Definition Documentation}{18}{subsection.4.9.2}}
\@writefile{toc}{\contentsline {subsubsection}{\numberline {4.9.2.1}R\discretionary {\unhbox \voidb@x \hbox {\relax \fontsize  {7}{8}\selectfont  $\leftarrow \joinrel  \rhook $}}{}{}E\discretionary {\unhbox \voidb@x \hbox {\relax \fontsize  {7}{8}\selectfont  $\leftarrow \joinrel  \rhook $}}{}{}G\discretionary {\unhbox \voidb@x \hbox {\relax \fontsize  {7}{8}\selectfont  $\leftarrow \joinrel  \rhook $}}{}{}I\discretionary {\unhbox \voidb@x \hbox {\relax \fontsize  {7}{8}\selectfont  $\leftarrow \joinrel  \rhook $}}{}{}S\discretionary {\unhbox \voidb@x \hbox {\relax \fontsize  {7}{8}\selectfont  $\leftarrow \joinrel  \rhook $}}{}{}T\discretionary {\unhbox \voidb@x \hbox {\relax \fontsize  {7}{8}\selectfont  $\leftarrow \joinrel  \rhook $}}{}{}E\discretionary {\unhbox \voidb@x \hbox {\relax \fontsize  {7}{8}\selectfont  $\leftarrow \joinrel  \rhook $}}{}{}R\discretionary {\unhbox \voidb@x \hbox {\relax \fontsize  {7}{8}\selectfont  $\leftarrow \joinrel  \rhook $}}{}{}\_\discretionary {\unhbox \voidb@x \hbox {\relax \fontsize  {7}{8}\selectfont  $\leftarrow \joinrel  \rhook $}}{}{}\discretionary {\unhbox \voidb@x \hbox {\relax \fontsize  {7}{8}\selectfont  $\leftarrow \joinrel  \rhook $}}{}{}M\discretionary {\unhbox \voidb@x \hbox {\relax \fontsize  {7}{8}\selectfont  $\leftarrow \joinrel  \rhook $}}{}{}E\discretionary {\unhbox \voidb@x \hbox {\relax \fontsize  {7}{8}\selectfont  $\leftarrow \joinrel  \rhook $}}{}{}M\discretionary {\unhbox \voidb@x \hbox {\relax \fontsize  {7}{8}\selectfont  $\leftarrow \joinrel  \rhook $}}{}{}B\discretionary {\unhbox \voidb@x \hbox {\relax \fontsize  {7}{8}\selectfont  $\leftarrow \joinrel  \rhook $}}{}{}E\discretionary {\unhbox \voidb@x \hbox {\relax \fontsize  {7}{8}\selectfont  $\leftarrow \joinrel  \rhook $}}{}{}R}{18}{subsubsection.4.9.2.1}}
\newlabel{_type_data_8inl_ac7ef735daa683e6f628f819cdae1e979}{{4.9.2.1}{18}{R\+E\+G\+I\+S\+T\+E\+R\+\_\+\+M\+E\+M\+B\+E\+R}{subsubsection.4.9.2.1}{}}
\@writefile{toc}{\contentsline {subsubsection}{\numberline {4.9.2.2}R\discretionary {\unhbox \voidb@x \hbox {\relax \fontsize  {7}{8}\selectfont  $\leftarrow \joinrel  \rhook $}}{}{}E\discretionary {\unhbox \voidb@x \hbox {\relax \fontsize  {7}{8}\selectfont  $\leftarrow \joinrel  \rhook $}}{}{}G\discretionary {\unhbox \voidb@x \hbox {\relax \fontsize  {7}{8}\selectfont  $\leftarrow \joinrel  \rhook $}}{}{}I\discretionary {\unhbox \voidb@x \hbox {\relax \fontsize  {7}{8}\selectfont  $\leftarrow \joinrel  \rhook $}}{}{}S\discretionary {\unhbox \voidb@x \hbox {\relax \fontsize  {7}{8}\selectfont  $\leftarrow \joinrel  \rhook $}}{}{}T\discretionary {\unhbox \voidb@x \hbox {\relax \fontsize  {7}{8}\selectfont  $\leftarrow \joinrel  \rhook $}}{}{}E\discretionary {\unhbox \voidb@x \hbox {\relax \fontsize  {7}{8}\selectfont  $\leftarrow \joinrel  \rhook $}}{}{}R\discretionary {\unhbox \voidb@x \hbox {\relax \fontsize  {7}{8}\selectfont  $\leftarrow \joinrel  \rhook $}}{}{}\_\discretionary {\unhbox \voidb@x \hbox {\relax \fontsize  {7}{8}\selectfont  $\leftarrow \joinrel  \rhook $}}{}{}\discretionary {\unhbox \voidb@x \hbox {\relax \fontsize  {7}{8}\selectfont  $\leftarrow \joinrel  \rhook $}}{}{}T\discretionary {\unhbox \voidb@x \hbox {\relax \fontsize  {7}{8}\selectfont  $\leftarrow \joinrel  \rhook $}}{}{}Y\discretionary {\unhbox \voidb@x \hbox {\relax \fontsize  {7}{8}\selectfont  $\leftarrow \joinrel  \rhook $}}{}{}P\discretionary {\unhbox \voidb@x \hbox {\relax \fontsize  {7}{8}\selectfont  $\leftarrow \joinrel  \rhook $}}{}{}E}{18}{subsubsection.4.9.2.2}}
\newlabel{_type_data_8inl_a10d2210883225925fae5f54837b7f3a7}{{4.9.2.2}{18}{R\+E\+G\+I\+S\+T\+E\+R\+\_\+\+T\+Y\+P\+E}{subsubsection.4.9.2.2}{}}
\@writefile{toc}{\contentsline {section}{\numberline {4.10}Source/\discretionary {\unhbox \voidb@x \hbox {\relax \fontsize  {7}{8}\selectfont  $\leftarrow \joinrel  \rhook $}}{}{}Core/\discretionary {\unhbox \voidb@x \hbox {\relax \fontsize  {7}{8}\selectfont  $\leftarrow \joinrel  \rhook $}}{}{}Variable.cpp File Reference}{18}{section.4.10}}
\newlabel{_variable_8cpp}{{4.10}{18}{Source/\+Core/\+Variable.cpp File Reference}{section.4.10}{}}
\@writefile{toc}{\contentsline {subsection}{\numberline {4.10.1}Detailed Description}{19}{subsection.4.10.1}}
\@writefile{toc}{\contentsline {section}{\numberline {4.11}Source/\discretionary {\unhbox \voidb@x \hbox {\relax \fontsize  {7}{8}\selectfont  $\leftarrow \joinrel  \rhook $}}{}{}Core/\discretionary {\unhbox \voidb@x \hbox {\relax \fontsize  {7}{8}\selectfont  $\leftarrow \joinrel  \rhook $}}{}{}Variable.hpp File Reference}{19}{section.4.11}}
\newlabel{_variable_8hpp}{{4.11}{19}{Source/\+Core/\+Variable.hpp File Reference}{section.4.11}{}}
\@writefile{toc}{\contentsline {subsection}{\numberline {4.11.1}Detailed Description}{19}{subsection.4.11.1}}
\@writefile{toc}{\contentsline {chapter}{Index}{21}{section*.18}}
