{
	"ArchetypeName" : "",
	"Children" : 
	{
		"2" : 
		{
			"ArchetypeName" : "",
			"Components" : 
			{
				"SpriteText" : 
				{
					"FontName" : "DefaultFont",
					"MaterialName" : "DefaultTextMaterial",
					"Text" : "asdfasdfasdf"
				}
			},
			"Name" : "AbilityName",
			"Transform" : 
			{
				"Position" : "[ -0.500126 -0.8 0 ]",
				"Rotation" : "[ 0 0 0 ]",
				"Scale" : "[ 0.25 0.25 1 ]"
			}
		}
	},
	"Components" : 
	{
		"Model" : 
		{
			"CurrentMaterial" : "DefaultMaterial",
			"ModelName" : "Quad"
		},
		"AbilityButton" : null,
		"BoxCollider" :
		{
			"Size" : "[ 1 1 0.001 ]"
		},
		"RigidBody" :
		{
			"Mass" : 0.0
		}
	},
	"Name" : "New Object",
	"Transform" : 
	{
		"Position" : "[ 0 0 0 ]",
		"Rotation" : "[ 0 0 0 ]",
		"Scale" : "[ 1 1 1 ]"
	}
}