{
	"ArchetypeName" : "",
	"Children" : 
	{
		"2" : 
		{
			"ArchetypeName" : "",
			"Components" : 
			{
				"HealthDisplay" : null
			},
			"Name" : "HealthDisplay",
			"Transform" : 
			{
				"Position" : "[ 0.0 0.5 0 ]",
				"Rotation" : "[ 0 0 0 ]",
				"Scale" : "[ 0.25 0.25 0.25 ]"
			}
		}
	},
	"Components" : 
	{
		"HUDFollowObject" : 
		{
			"Offset" : "[ 0 0.5 0 ]"	
		},
		"StatusDisplay" : null
	},
	"Name" : "New Object",
	"Transform" : 
	{
		"Position" : "[ 0 0 0 ]",
		"Rotation" : "[ 0 0 0 ]",
		"Scale" : "[ 1 1 1 ]"
	}
}